…
Now that we have a better idea of some of the nuances of the data, let’s
start to address some questions.

## Can I find my dog in this dataset?

I adopted my dog Loki last September, which the website from which I
pulled the data source indicated is included. I can look for any animal
with the name Loki using another function from tidyverse:

``` r
filter(pets, `Animal's Name` == "Loki")
```

    ## # A tibble: 117 x 7
    ##    `License Issue Da… `License Number` `Animal's Name` Species `Primary Breed`  
    ##    <chr>              <chr>            <chr>           <chr>   <chr>            
    ##  1 April 10 2019      142748           Loki            Cat     Domestic Medium …
    ##  2 April 23 2019      8007463          Loki            Cat     Mix              
    ##  3 May 11 2019        8007924          Loki            Cat     Domestic Longhair
    ##  4 June 11 2019       349964           Loki            Cat     Pixie-Bob        
    ##  5 June 28 2019       S150592          Loki            Cat     Domestic Shortha…
    ##  6 July 20 2019       434474           Loki            Cat     Pixie-Bob        
    ##  7 August 04 2019     8010346          Loki            Cat     Domestic Shortha…
    ##  8 August 05 2019     S133431          Loki            Cat     Domestic Shortha…
    ##  9 August 07 2019     577887           Loki            Cat     Domestic Shortha…
    ## 10 August 21 2019     S136205          Loki            Cat     Domestic Shortha…
    ## # … with 107 more rows, and 2 more variables: Secondary Breed <chr>,
    ## #   ZIP Code <dbl>
…
It looks like there are a lot of pets named Loki! We could assign that
output to a new object, then apply another filter to the new object.
Instead, we’re going to learn a tool that will help us build more
complex sets of data manipulation steps.

The following code results in the same output as the last code we ran:

``` r
pets %>%
  filter(`Animal's Name` == "Loki")
```

    ## # A tibble: 117 x 7
    ##    `License Issue Da… `License Number` `Animal's Name` Species `Primary Breed`  
    ##    <chr>              <chr>            <chr>           <chr>   <chr>            
    ##  1 April 10 2019      142748           Loki            Cat     Domestic Medium …
    ##  2 April 23 2019      8007463          Loki            Cat     Mix              
    ##  3 May 11 2019        8007924          Loki            Cat     Domestic Longhair
    ##  4 June 11 2019       349964           Loki            Cat     Pixie-Bob        
    ##  5 June 28 2019       S150592          Loki            Cat     Domestic Shortha…
    ##  6 July 20 2019       434474           Loki            Cat     Pixie-Bob        
    ##  7 August 04 2019     8010346          Loki            Cat     Domestic Shortha…
    ##  8 August 05 2019     S133431          Loki            Cat     Domestic Shortha…
    ##  9 August 07 2019     577887           Loki            Cat     Domestic Shortha…
    ## 10 August 21 2019     S136205          Loki            Cat     Domestic Shortha…
    ## # … with 107 more rows, and 2 more variables: Secondary Breed <chr>,
    ## #   ZIP Code <dbl>
…
Wow, it looks like there are two minuature pinschers in Seattle named
Loki!

## Where do goats live?

Let’s continue to build on our knowledge of pipes and Tidyverse
functions by addressing our next question. We’ll start with a filter
that is similar to what we used in the previous section:

``` r
pets %>%
  filter(Species == "Goat")
```

    ## # A tibble: 35 x 7
    ##    `License Issue Da… `License Number` `Animal's Name`   Species `Primary Breed`
    ##    <chr>              <chr>            <chr>             <chr>   <chr>          
    ##  1 July 12 2019       S101598          Finn              Goat    Miniature      
    ##  2 July 12 2019       S101599          Mollie            Goat    Miniature      
    ##  3 July 31 2019       S136146          Abelard           Goat    Miniature      
    ##  4 July 31 2019       S136147          Olive             Goat    Miniature      
    ##  5 October 28 2019    S135973          Linda             Goat    Miniature      
    ##  6 October 28 2019    S135974          Max               Goat    Miniature      
    ##  7 December 27 2019   S135866          Grace             Goat    Miniature      
    ##  8 December 27 2019   828693           Pegasis           Goat    Miniature      
    ##  9 January 30 2020    S108877          Professor Nibble… Goat    Miniature      
    ## 10 January 30 2020    S108879          Brussels Sprout   Goat    Miniature      
    ## # … with 25 more rows, and 2 more variables: Secondary Breed <chr>,
    ## #   ZIP Code <dbl>
…
## What are the most common pet names in the dataset?

Our next question will allow us to perform a few additional data
manipulations, and also introduce some basic visualization.

First, let’s count how many of each pet name are in the dataset:

``` r
pets %>%
  count(`Animal's Name`)
```

    ## # A tibble: 13,137 x 2
    ##    `Animal's Name`     n
    ##    <chr>           <int>
    ##  1 "__"                1
    ##  2 "-"                 1
    ##  3 "?????"             1
    ##  4 "'Alani"            1
    ##  5 "'Murca"            1
    ##  6 "\"Mama\" Maya"     1
    ##  7 "#1"                1
    ##  8 "#2"                1
    ##  9 "30 Weight"         1
    ## 10 "7's"               1
    ## # … with 13,127 more rows

That’s still a lot of pet names! Unlike `tally` from spit-apply-combine,
these aren’t sorted in any order. We can order them with another
function:

``` r
pets %>%
  count(`Animal's Name`) %>%
  arrange()
```

    ## # A tibble: 13,137 x 2
    ##    `Animal's Name`     n
    ##    <chr>           <int>
    ##  1 "__"                1
    ##  2 "-"                 1
    ##  3 "?????"             1
    ##  4 "'Alani"            1
    ##  5 "'Murca"            1
    ##  6 "\"Mama\" Maya"     1
    ##  7 "#1"                1
    ##  8 "#2"                1
    ##  9 "30 Weight"         1
    ## 10 "7's"               1
    ## # … with 13,127 more rows

We need to add one more argument to change the order of arrangement:

``` r
pets %>%
  count(`Animal's Name`) %>%
  arrange(desc(n))
```

    ## # A tibble: 13,137 x 2
    ##    `Animal's Name`     n
    ##    <chr>           <int>
    ##  1 Luna              402
    ##  2 Lucy              340
    ##  3 Charlie           334
    ##  4 Bella             285
    ##  5 Daisy             224
    ##  6 Max               219
    ##  7 Lily              198
    ##  8 Lola              195
    ##  9 Jack              190
    ## 10 Oliver            187
    ## # … with 13,127 more rows
…
